{
   "abstract" : "Manipulate NxN matrices of real numbers",
   "author" : [
      "Jonathan Leto <jonathan@leto.net>"
   ],
   "dynamic_config" : 0,
   "generated_by" : "Module::Build version 0.42",
   "license" : [
      "perl_5"
   ],
   "meta-spec" : {
      "url" : "http://search.cpan.org/perldoc?CPAN::Meta::Spec",
      "version" : "2"
   },
   "name" : "Math-MatrixReal",
   "prereqs" : {
      "build" : {
         "requires" : {
            "File::Spec" : "0",
            "Test::Most" : "0"
         }
      },
      "configure" : {
         "requires" : {
            "Module::Build" : "0.38"
         }
      }
   },
   "provides" : {
      "Math::MatrixReal" : {
         "file" : "lib/Math/MatrixReal.pm",
         "version" : "2.09"
      }
   },
   "release_status" : "stable",
   "resources" : {
      "license" : [
         "http://dev.perl.org/licenses/"
      ],
      "repository" : {
         "url" : "http://github.com/leto/math--matrixreal/tree/master"
      }
   },
   "version" : "2.09"
}
